Ejemplos_R - Semana 3
…
Rows: 22 Columns: 1
── Column specification ────────────────────────────────────────────────────────
Delimiter: ","
chr (1): ;Base de datos de productos;;;;;;;;

ℹ Use `spec()` to retrieve the full column specification for this data.
ℹ Specify the column types or set `show_col_types = FALSE` to quiet this message.

Por ultimo se imprime la información de los datos leidos

datos

# A tibble: 22 × 1
   `;Base de datos de productos;;;;;;;;`                                        
   <chr>                                                                        
 1 ";;;;;;;;;"                                                                  
 2 "IdProducto;NombreProducto;Proveedor;Categor\xeda;CantidadPorUnidad;PrecioUn…
 3 "1;T\xe9 Dharamsala;Exotic Liquids;Bebidas;10 cajas x 20 bolsas;18.00 \x80;3…
 4 "2;Cerveza tibetana Barley;Exotic Liquids;Bebidas;24 - bot. 12 l;19.00 \x80;…
 5 "3;Sirope de regaliz;Exotic Liquids;Condimentos;12 - bot. 550 ml;10.00 \x80;…
 6 "4;Especias Cajun del chef Anton;New Orleans Cajun Delights;Condimentos;48 -…
 7 "5;Mezcla Gumbo del chef Anton;New Orleans Cajun Delights;Condimentos;36 caj…
 8 "6;Mermelada de grosellas de la abuela;Grandma Kelly's Homestead;Condimentos…
 9 "7;Peras secas org\xe1nicas del t\xedo Bob;Grandma Kelly's Homestead;Frutas/…
10 "8;Salsa de ar\xe1ndanos Northwoods;Grandma Kelly's Homestead;Condimentos;12…
# ℹ 12 more rows
…
